1 10 20
100 200 125
201 210 89
900 1000 174
999998 999999 259
1 2 2
1 1 1
4 5 6
4 6 9
5 9 20
10 10 7
5 3 8
14 43 112
6 7 17
69 123 119
5 47 112
56 57 33
12 15 18
999999 999999 259
111 112 70
156 131 117
555 678 145
200 220 115
1 999999 525
1000 2000 182
523 600 137
242 4221 238
1010 10101 262
142067 142078 251
16378 16380 173
25 27 112
28 30 19
31 35 107
51 46 105
19 41 112
2 10 20
3 9 20
4 11 20
5 13 20
1 3 8
70 71 103
69 72 103
73 75 116
99 100 26
101 102 26
17 18 21
1 5 8
343 345 126
444 441 116
9 16 20
21111 21112 150
31111 31113 210
41111 41113 151
51111 51113 203
61111 61113 180
71111 71113 188
81111 81113 64
91111 91113 178
145 154 117
245 246 48
211 212 40
311 312 87
411 412 134
511 512 62
611 612 39
711 712 65
811 812 135
911 912 42
122 123 47
222 223 71
332 333 113
442 443 116
552 553 137
662 663 26
772 773 122
882 883 29
992 993 112
10 11 15
11 12 15
12 13 10
13 14 18
14 15 18
15 16 18
16 17 13
17 18 21
18 19 21
19 20 21
20 21 8
21 22 16
22 23 16
23 24 16
25 26 24
26 27 112
27 28 112
28 29 19
29 30 19
30 31 107
31 32 107
32 33 27
33 34 27
35 36 22
36 37 22
37 38 22
38 39 35
39 40 35
